module calculator_api

go 1.19

require (
	github.com/andybalholm/brotli v1.0.4 // indirect
	github.com/gofiber/fiber v1.14.6 // indirect
	github.com/gofiber/fiber/v2 v2.41.0 // indirect
	github.com/gofiber/utils v0.0.10 // indirect
	github.com/gorilla/schema v1.1.0 // indirect
	github.com/klauspost/compress v1.15.15 // indirect
	github.com/mattn/go-colorable v0.1.13 // indirect
	github.com/mattn/go-isatty v0.0.17 // indirect
	github.com/mattn/go-runewidth v0.0.14 // indirect
	github.com/rivo/uniseg v0.4.3 // indirect
	github.com/valyala/bytebufferpool v1.0.0 // indirect
	github.com/valyala/fasthttp v1.44.0 // indirect
	github.com/valyala/tcplisten v1.0.0 // indirect
	golang.org/x/sys v0.4.0 // indirect
)
